1963,14,false,"Partito Socialista Democratico Italiano"
1972,12,false,"Partito Socialista Democratico Italiano"
1976,8,false,"Partito Socialista Democratico Italiano"
1979,10,false,"Partito Socialista Democratico Italiano"
1983,9,false,"Partito Socialista Democratico Italiano"
1987,7,false,"Partito Socialista Democratico Italiano"
