1948,11,false,"Repubblicano"
1953,10,false,"Libero - Social - Repubblicano"
1976,8,false,"Repubblicano"
1979,8,false,"Repubblicano"
1983,12,false,"Repubblicano"
1987,9,false,"Repubblicano"
1992,12,false,"Repubblicano"
