2000,11,false,"Federazione Cristiano Democratica - CCD"
1996,15,false,"Federazione Cristiano Democratica - CCD"
1997,13,false,"Federazione Cristiano Democratica - CCD"
1998,12,false,"Federazione Cristiano Democratica - CCD"
1999,12,false,"Federazione Cristiano Democratica - CCD"
