1987,6,false,"Federalista Europeo Ecologista"
1988,6,false,"Federalista Europeo Ecologista"
1989,6,false,"Federalista Europeo Ecologista"
1990,6,false,"Federalista Europeo Ecologista"
1991,6,false,"Federalista Europeo Ecologista"
