2008,146,false,"Il Popolo della Libertà"
2009,145,false,"Il Popolo della Libertà"
2010,134,false,"Il Popolo della Libertà"
2011,128,false,"Il Popolo della Libertà"
2012,115,false,"Il Popolo della Libertà"
