2001,17,false,"Lega Nord Padania"
2002,17,false,"Lega Nord Padania"
2003,17,false,"Lega Nord Padania"
2004,17,false,"Lega Nord Padania"
2005,17,false,"Lega Nord Padania"
2006,13,false,"Lega Nord Padania"
2007,12,false,"Lega Nord Padania"
2008,26,false,"Lega Nord Padania"
2009,26,false,"Lega Nord Padania"
2010,26,false,"Lega Nord Padania"
2011,25,false,"Lega Nord Padania"
2012,22,false,"Lega Nord Padania"
