1953,10,false,"Libero - Social - Repubblicano"
1954,10,false,"Libero - Social - Repubblicano"
1955,10,false,"Libero - Social - Repubblicano"
1956,11,false,"Libero - Social - Repubblicano"
1957,11,false,"Libero - Social - Repubblicano"
