2001,10,false,"Per le Autonomie"
2002,11,false,"Per le Autonomie"
2003,10,false,"Per le Autonomie"
2004,10,false,"Per le Autonomie"
2005,10,false,"Per le Autonomie"
2006,10,false,"Per le Autonomie"
2007,10,false,"Per le Autonomie"
