2016,19,false,"Per le Autonomie (SVP-UV-PATT-UPT)-PSI-MAIE"
2017,18,false,"Per le Autonomie (SVP-UV-PATT-UPT)-PSI-MAIE"
2013,12,false,"Per le Autonomie (SVP-UV-PATT-UPT)-PSI-MAIE"
2014,16,false,"Per le Autonomie (SVP-UV-PATT-UPT)-PSI-MAIE"
2015,20,false,"Per le Autonomie (SVP-UV-PATT-UPT)-PSI-MAIE"
