1952,8,false,"Repubblicano"
1984,12,false,"Repubblicano"
1985,12,false,"Repubblicano"
1986,12,false,"Repubblicano"
1987,9,false,"Repubblicano"
1988,9,false,"Repubblicano"
1989,9,false,"Repubblicano"
1990,9,false,"Repubblicano"
1991,9,false,"Repubblicano"
1992,12,false,"Repubblicano"
1993,12,false,"Repubblicano"
1976,7,false,"Repubblicano"
1977,7,false,"Repubblicano"
1978,7,false,"Repubblicano"
1979,7,false,"Repubblicano"
1948,11,false,"Repubblicano"
1980,8,false,"Repubblicano"
1949,11,false,"Repubblicano"
1981,7,false,"Repubblicano"
1950,10,false,"Repubblicano"
1982,7,false,"Repubblicano"
1951,10,false,"Repubblicano"
1983,12,false,"Repubblicano"
