1995,52001,false,https://it.wikipedia.org/wiki/Forza_Italia_(1994)#Iscritti
1997,139546,false,https://it.wikipedia.org/wiki/Forza_Italia_(1994)#Iscritti
1998,161319,false,https://it.wikipedia.org/wiki/Forza_Italia_(1994)#Iscritti
1999,190398,false,https://it.wikipedia.org/wiki/Forza_Italia_(1994)#Iscritti
2000,312863,false,https://it.wikipedia.org/wiki/Forza_Italia_(1994)#Iscritti
2001,271751,false,https://it.wikipedia.org/wiki/Forza_Italia_(1994)#Iscritti
2002,222631,false,https://it.wikipedia.org/wiki/Forza_Italia_(1994)#Iscritti
2003,249824,false,https://it.wikipedia.org/wiki/Forza_Italia_(1994)#Iscritti
2007,401014,false,https://it.wikipedia.org/wiki/Forza_Italia_(1994)#Iscritti